Introduction to data analysis with R and Bioconductor: 次のステップ
…
チャレンジ

長いrnaテーブルを使用して同じ値が得られることを確認する。

  ソリューション

R

rna |>
    filter(gene %in% c("Asl", "Apod", "Cyd2d22"))|>
    filter(time != 4) |> select(expression)

出力

# A tibble: 28 × 1
   expression
        <dbl>
 1       1170
 2      36194
 3        361
 4      10347
 5        400
 6       9173
 7        988
 8      29594
 9        836
10      24959
# ℹ 18 more rows
…
